<?xml version="1.0" encoding="utf-8"?>
<!-- Generator: Adobe Illustrator 21.1.0, SVG Export Plug-In . SVG Version: 6.00 Build 0)  -->
<svg version="1.1" id="Layer_1" xmlns="http://www.w3.org/2000/svg" xmlns:xlink="http://www.w3.org/1999/xlink" x="0px" y="0px"
	 viewBox="0 0 30 30" style="enable-background:new 0 0 30 30;" xml:space="preserve">
<style type="text/css">
	.st0{fill:#FFFFFF;}
</style>
<path class="st0" d="M4.4,30h9.8V19.3h-3.5v-3.5h3.5v-4.4c0-2.4,2-4.4,4.4-4.4H23v3.5h-3.5c-1,0-1.8,0.8-1.8,1.8v3.5h5.1l-0.6,3.5
	h-4.5V30h7.9c2.4,0,4.4-2,4.4-4.4V4.4C30,2,28,0,25.6,0H4.4C2,0,0,2,0,4.4v21.2C0,28,2,30,4.4,30z M1.8,4.4c0-1.5,1.2-2.6,2.6-2.6
	h21.2c1.5,0,2.6,1.2,2.6,2.6v21.2c0,1.5-1.2,2.6-2.6,2.6h-6.2v-7.1h4.3l1.2-7h-5.4v-1.8h5.3v-7h-6.2c-3.4,0-6.2,2.8-6.2,6.2v2.6H8.9
	v7h3.5v7.1h-8c-1.5,0-2.6-1.2-2.6-2.6V4.4z"/>
</svg>
