<?xml version="1.0" encoding="utf-8"?>
<!-- Generator: Adobe Illustrator 21.1.0, SVG Export Plug-In . SVG Version: 6.00 Build 0)  -->
<svg version="1.1" id="Layer_1" xmlns="http://www.w3.org/2000/svg" xmlns:xlink="http://www.w3.org/1999/xlink" x="0px" y="0px"
	 viewBox="0 0 30 30" style="enable-background:new 0 0 30 30;" xml:space="preserve">
<style type="text/css">
	.st0{fill:#FFFFFF;}
</style>
<path class="st0" d="M4.4,30h21.2c2.4,0,4.4-2,4.4-4.4V4.4C30,2,28,0,25.6,0H4.4C2,0,0,2,0,4.4v21.2C0,28,2,30,4.4,30z M1.8,4.4
	c0-1.5,1.2-2.6,2.6-2.6h21.2c1.5,0,2.6,1.2,2.6,2.6v21.2c0,1.5-1.2,2.6-2.6,2.6H4.4c-1.5,0-2.6-1.2-2.6-2.6V4.4z"/>
<path class="st0" d="M15,22.9c4.4,0,7.9-3.5,7.9-7.9S19.4,7.1,15,7.1S7.1,10.6,7.1,15S10.6,22.9,15,22.9z M15,8.8
	c3.4,0,6.2,2.8,6.2,6.2s-2.8,6.2-6.2,6.2S8.8,18.4,8.8,15S11.6,8.8,15,8.8z"/>
<path class="st0" d="M23.8,8.8c1.5,0,2.6-1.2,2.6-2.6s-1.2-2.6-2.6-2.6s-2.6,1.2-2.6,2.6S22.3,8.8,23.8,8.8z M23.8,5.3
	c0.5,0,0.9,0.4,0.9,0.9s-0.4,0.9-0.9,0.9s-0.9-0.4-0.9-0.9S23.3,5.3,23.8,5.3z"/>
</svg>
