<?xml version="1.0" encoding="utf-8"?>
<!-- Generator: Adobe Illustrator 21.1.0, SVG Export Plug-In . SVG Version: 6.00 Build 0)  -->
<svg version="1.1" id="Layer_1" xmlns="http://www.w3.org/2000/svg" xmlns:xlink="http://www.w3.org/1999/xlink" x="0px" y="0px"
	 viewBox="0 0 30 30" style="enable-background:new 0 0 30 30;" xml:space="preserve">
<style type="text/css">
	.st0{fill:#FFFFFF;}
</style>
<path class="st0" d="M25.6,0H4.4C2,0,0,2,0,4.4v21.2C0,28,2,30,4.4,30h21.2c2.4,0,4.4-2,4.4-4.4V4.4C30,2,28,0,25.6,0z M28.2,25.6
	c0,1.5-1.2,2.6-2.6,2.6H4.4c-1.5,0-2.6-1.2-2.6-2.6V4.4c0-1.5,1.2-2.6,2.6-2.6h21.2c1.5,0,2.6,1.2,2.6,2.6V25.6z"/>
<path class="st0" d="M5.3,24.7h5.3V12.3H5.3V24.7z M7.1,14.1h1.8V23H7.1V14.1z"/>
<path class="st0" d="M19.4,12.3C19.4,12.3,19.4,12.3,19.4,12.3c-0.6,0-1.2,0.1-1.8,0.3v-0.3h-5.3v12.4h5.3v-6.3
	c0-0.5,0.4-0.9,0.9-0.9s0.9,0.4,0.9,0.9v6.3h5.3v-6.9C24.7,15,22.4,12.3,19.4,12.3z M22.9,23h-1.8v-4.5c0-1.5-1.2-2.6-2.6-2.6
	s-2.6,1.2-2.6,2.6V23h-1.8v-8.9h1.8v1.8l1.4-1.1c0.6-0.5,1.3-0.7,2.1-0.7h0c1.9,0,3.5,1.8,3.5,3.8V23z"/>
<path class="st0" d="M5.3,10.5h5.3V5.3H5.3V10.5z M7.1,7h1.8v1.8H7.1V7z"/>
</svg>
