<?xml version="1.0" encoding="utf-8"?>
<!-- Generator: Adobe Illustrator 21.1.0, SVG Export Plug-In . SVG Version: 6.00 Build 0)  -->
<svg version="1.1" id="Capa_1" xmlns="http://www.w3.org/2000/svg" xmlns:xlink="http://www.w3.org/1999/xlink" x="0px" y="0px"
	 viewBox="0 0 512 512" style="enable-background:new 0 0 512 512;" xml:space="preserve">
<style type="text/css">
	.st0{fill:#0CDBD4;stroke:#0CDBD4;stroke-width:20;stroke-miterlimit:10;}
</style>
<g>
	<path class="st0" d="M473,144.3c-17.1-33.1-42-62.4-72.1-84.6c-4.4-3.3-10.6-2.3-13.9,2.1c-3.3,4.4-2.3,10.6,2.1,13.9
		c27.6,20.4,50.5,47.3,66.2,77.8c16.5,31.9,24.8,66.4,24.8,102.6c0,123.6-100.5,224.1-224.1,224.1S31.9,379.6,31.9,256
		S132.4,31.9,256,31.9c5.5,0,9.9-4.4,9.9-9.9S261.5,12,256,12C121.5,12,12,121.5,12,256s109.5,244,244,244s244-109.5,244-244
		C500,217.2,490.7,178.6,473,144.3z"/>
	<path class="st0" d="M193.6,142.7c-3.1,1.8-5,5.1-5,8.6v217.9c0,5.5,4.4,9.9,9.9,9.9s9.9-4.4,9.9-9.9V168.8l147,87.5L247.3,326
		c-4.6,3-5.9,9.1-3,13.7c3,4.6,9.1,5.9,13.7,3l121.6-78.3c2.9-1.9,4.6-5.1,4.5-8.5c-0.1-3.4-1.9-6.6-4.8-8.4L203.6,142.8
		C200.5,141,196.7,140.9,193.6,142.7z"/>
</g>
</svg>
